{
    "photos":
        {
            "page":1,
            "pages":5,
            "perpage":100,
            "total":500,
            "photo":[{"id":"31311001950","owner":"70992083@N07","secret":"b4f141f1f9","server":"223","farm":1,"title":"Kiss the Sky","ispublic":1,"isfriend":0,"isfamily":0},{"id":"30864869653","owner":"55740718@N03","secret":"1b5820f32c","server":"489","farm":1,"title":"Mist by a Smile!","ispublic":1,"isfriend":0,"isfamily":0},{"id":"31567798611","owner":"132822455@N05","secret":"3825c66b32","server":"5578","farm":6,"title":"The Buttermere pines","ispublic":1,"isfriend":0,"isfamily":0},{"id":"30872649833","owner":"89187987@N03","secret":"8610d9fe5e","server":"346","farm":1,"title":"Going places","ispublic":1,"isfriend":0,"isfamily":0},{"id":"31312976640","owner":"87044997@N08","secret":"c35be880e7","server":"403","farm":1,"title":"Gondola's","ispublic":1,"isfriend":0,"isfamily":0},{"id":"31641141156","owner":"45571539@N06","secret":"759c133c99","server":"479","farm":1,"title":"Missed opportunity","ispublic":1,"isfriend":0,"isfamily":0},{"id":"30874218593","owner":"82937601@N08","secret":"2f5c1d45d9","server":"500","farm":1,"title":"san diego : ocean beach pier","ispublic":1,"isfriend":0,"isfamily":0},{"id":"31649162156","owner":"129351748@N08","secret":"8a78a0204c","server":"677","farm":1,"title":"miles","ispublic":1,"isfriend":0,"isfamily":0},{"id":"31641663126","owner":"134378250@N05","secret":"151183e1fc","server":"564","farm":1,"title":"Lighthouse at Night","ispublic":1,"isfriend":0,"isfamily":0},{"id":"30867482523","owner":"59394425@N05","secret":"cac137d8e1","server":"645","farm":1,"title":"- Yokohama - Yokohama - Yokohama -","ispublic":1,"isfriend":0,"isfamily":0},{"id":"30863845363","owner":"88576252@N00","secret":"09162efa56","server":"334","farm":1,"title":"7121 (explored)","ispublic":1,"isfriend":0,"isfamily":0},{"id":"31298764080","owner":"141368588@N06","secret":"76a24bca47","server":"5613","farm":6,"title":"Jenny Lake","ispublic":1,"isfriend":0,"isfamily":0},{"id":"31643783906","owner":"13639387@N05","secret":"d6a1f25645","server":"496","farm":1,"title":"Life of Trees","ispublic":1,"isfriend":0,"isfamily":0},{"id":"31684797325","owner":"16209124@N00","secret":"447b253d12","server":"229","farm":1,"title":"Erasmusbrug & Watertaxi's","ispublic":1,"isfriend":0,"isfamily":0},{"id":"31634392236","owner":"66956608@N06","secret":"58b897f049","server":"485","farm":1,"title":"Flickr Friday - You'll Never Walk Alone","ispublic":1,"isfriend":0,"isfamily":0},{"id":"31571705251","owner":"52160076@N08","secret":"379b3d06a8","server":"739","farm":1,"title":"Lines In The Sand","ispublic":1,"isfriend":0,"isfamily":0},{"id":"31568210501","owner":"130984525@N03","secret":"0d8c7a6724","server":"27","farm":1,"title":"Lost in the Forest","ispublic":1,"isfriend":0,"isfamily":0},{"id":"30868520393","owner":"132867686@N07","secret":"a6ecb46ec6","server":"590","farm":1,"title":"Reine Norwegen Lofoten","ispublic":1,"isfriend":0,"isfamily":0},{"id":"30869160163","owner":"35303070@N02","secret":"c8e3fb4424","server":"135","farm":1,"title":"Blaze-Winged Parakeet Pantanal Brazil","ispublic":1,"isfriend":0,"isfamily":0},{"id":"31310070860","owner":"95276574@N05","secret":"7925d22480","server":"735","farm":1,"title":"Look","ispublic":1,"isfriend":0,"isfamily":0},{"id":"30847570264","owner":"50264123@N00","secret":"503361f8f8","server":"543","farm":1,"title":"Canyon de Chelly Autumn Panoramic","ispublic":1,"isfriend":0,"isfamily":0},{"id":"31643037216","owner":"125645386@N04","secret":"9c5f2892a1","server":"636","farm":1,"title":"Sentier enneig\u00e9","ispublic":1,"isfriend":0,"isfamily":0},{"id":"31565381391","owner":"94101150@N02","secret":"3d07e6a956","server":"627","farm":1,"title":"Fall Colors","ispublic":1,"isfriend":0,"isfamily":0},{"id":"31639358816","owner":"60118325@N03","secret":"79e5c79f70","server":"400","farm":1,"title":"red scale dawn","ispublic":1,"isfriend":0,"isfamily":0},{"id":"31534449802","owner":"122507681@N02","secret":"9516a3cb51","server":"576","farm":1,"title":"GAL111","ispublic":1,"isfriend":0,"isfamily":0},{"id":"31646935716","owner":"135893774@N05","secret":"0fe8b83aea","server":"651","farm":1,"title":"Dockland","ispublic":1,"isfriend":0,"isfamily":0},{"id":"31538578032","owner":"7539598@N04","secret":"43679996e7","server":"607","farm":1,"title":"Phiale sp. Jumping Spider - Tambopata, Peru","ispublic":1,"isfriend":0,"isfamily":0},{"id":"31686819795","owner":"124304575@N06","secret":"1c10b555a1","server":"459","farm":1,"title":"Herbert Lake","ispublic":1,"isfriend":0,"isfamily":0},{"id":"31316387730","owner":"65727459@N02","secret":"c6066eff93","server":"362","farm":1,"title":"Anxiety about existence 226","ispublic":1,"isfriend":0,"isfamily":0},{"id":"31641062556","owner":"53659781@N08","secret":"bbb45d4d01","server":"669","farm":1,"title":"Winter dusk 2016-12-11 170143","ispublic":1,"isfriend":0,"isfamily":0},{"id":"31559516951","owner":"106365084@N07","secret":"1e2bcbbd7a","server":"259","farm":1,"title":"HFF","ispublic":1,"isfriend":0,"isfamily":0},{"id":"31569181491","owner":"61384338@N02","secret":"815442ff03","server":"634","farm":1,"title":"Karlskirche","ispublic":1,"isfriend":0,"isfamily":0},{"id":"31652124736","owner":"44996759@N06","secret":"9cb5497571","server":"374","farm":1,"title":"Serene nights","ispublic":1,"isfriend":0,"isfamily":0},{"id":"31643300736","owner":"25235699@N02","secret":"86213b4c05","server":"474","farm":1,"title":"Goose emotion - Geese in motion [Explored]","ispublic":1,"isfriend":0,"isfamily":0},{"id":"31529710482","owner":"98142888@N03","secret":"2c36747c86","server":"276","farm":1,"title":"Rest until the wave returns... [to AK]","ispublic":1,"isfriend":0,"isfamily":0},{"id":"31683518615","owner":"52147027@N02","secret":"173305ed27","server":"482","farm":1,"title":"\u2022 I'M\u2026 The Black Star","ispublic":1,"isfriend":0,"isfamily":0},{"id":"31564148731","owner":"33676859@N05","secret":"35c1b7b4f7","server":"5571","farm":6,"title":"Ain't She Purdy \u00a9 (explored)","ispublic":1,"isfriend":0,"isfamily":0},{"id":"31679449825","owner":"59298007@N03","secret":"9ae80f201d","server":"508","farm":1,"title":"Under the bridge","ispublic":1,"isfriend":0,"isfamily":0},{"id":"31644961856","owner":"97886185@N06","secret":"66b1c34948","server":"512","farm":1,"title":"Qingdao, China \/ May. 2nd, 2016","ispublic":1,"isfriend":0,"isfamily":0},{"id":"30842814614","owner":"68157640@N04","secret":"7aa5c9252f","server":"667","farm":1,"title":"Calm before the storm","ispublic":1,"isfriend":0,"isfamily":0},{"id":"31573211401","owner":"46573247@N05","secret":"441f14165b","server":"497","farm":1,"title":"Coyote","ispublic":1,"isfriend":0,"isfamily":0},{"id":"30837301694","owner":"124442464@N02","secret":"97db3305a4","server":"632","farm":1,"title":"Goodmorning!","ispublic":1,"isfriend":0,"isfamily":0},{"id":"31684460295","owner":"59916912@N03","secret":"221e581fed","server":"730","farm":1,"title":"Sparrowhawk-6888","ispublic":1,"isfriend":0,"isfamily":0},{"id":"30867733903","owner":"21210852@N06","secret":"c310c7e2c2","server":"777","farm":1,"title":"Esos cielos de invierno...","ispublic":1,"isfriend":0,"isfamily":0},{"id":"31563047561","owner":"35039535@N08","secret":"438c9a93e7","server":"638","farm":1,"title":"first breath","ispublic":1,"isfriend":0,"isfamily":0},{"id":"31686174105","owner":"85633072@N06","secret":"0e1e9d6ecc","server":"497","farm":1,"title":"Green violetear  Colibr\u00ed Orejiazul  Colibr\u00ed Oreja Violeta  (Colibri thalassinus)","ispublic":1,"isfriend":0,"isfamily":0},{"id":"30845884154","owner":"101663179@N03","secret":"733be2de22","server":"587","farm":1,"title":"White Ibis, Orange County, FL [Explore 16 December 2016]","ispublic":1,"isfriend":0,"isfamily":0},{"id":"31305545940","owner":"131793185@N08","secret":"d485f98ecd","server":"344","farm":1,"title":"Sit down, let's talk!","ispublic":1,"isfriend":0,"isfamily":0},{"id":"31537168912","owner":"33416825@N00","secret":"53c98e08e6","server":"330","farm":1,"title":"-","ispublic":1,"isfriend":0,"isfamily":0},{"id":"31536673152","owner":"91452525@N04","secret":"a8857c1f71","server":"5586","farm":6,"title":"Pinson des arbres Fringilla coelebs - Common Chaffinch","ispublic":1,"isfriend":0,"isfamily":0},{"id":"31315912280","owner":"24441843@N00","secret":"6dfbb24315","server":"553","farm":1,"title":"the girl with the laptop","ispublic":1,"isfriend":0,"isfamily":0},{"id":"30872252213","owner":"8265881@N03","secret":"ebcd6ecc20","server":"33","farm":1,"title":"Prince's Bay","ispublic":1,"isfriend":0,"isfamily":0},{"id":"30867331823","owner":"131960316@N02","secret":"552790e81f","server":"33","farm":1,"title":"Eurasian penduline tit a","ispublic":1,"isfriend":0,"isfamily":0},{"id":"31558920701","owner":"33726922@N05","secret":"dc5ccbbd37","server":"373","farm":1,"title":"Bald Eagle with Fish","ispublic":1,"isfriend":0,"isfamily":0},{"id":"30872108843","owner":"61523974@N00","secret":"09bbf2c5b8","server":"744","farm":1,"title":"Wood","ispublic":1,"isfriend":0,"isfamily":0},{"id":"31651725056","owner":"78998859@N04","secret":"ef4c6d5252","server":"730","farm":1,"title":"Chouette ray\u00e9e \\ Barred Owl","ispublic":1,"isfriend":0,"isfamily":0},{"id":"30876111153","owner":"40927340@N03","secret":"c3decc4c66","server":"470","farm":1,"title":"From the Darkness","ispublic":1,"isfriend":0,"isfamily":0},{"id":"31556613791","owner":"81842696@N06","secret":"aef7970c8e","server":"378","farm":1,"title":"Ambiance","ispublic":1,"isfriend":0,"isfamily":0},{"id":"31536849552","owner":"130731185@N04","secret":"e5c3d41467","server":"658","farm":1,"title":"Mam Tor Panaramic","ispublic":1,"isfriend":0,"isfamily":0},{"id":"31539084892","owner":"108033162@N04","secret":"86199cb3a3","server":"448","farm":1,"title":"\ud83c\udf15 Supermond- und Sternschnuppennacht 14.12.2016 \u2728","ispublic":1,"isfriend":0,"isfamily":0},{"id":"30875228233","owner":"71350821@N06","secret":"4a90eae4a4","server":"543","farm":1,"title":"Happy Christmas to all friends !","ispublic":1,"isfriend":0,"isfamily":0},{"id":"30874862773","owner":"62360585@N02","secret":"feb5ffaf70","server":"743","farm":1,"title":"Sunset Campelo...","ispublic":1,"isfriend":0,"isfamily":0},{"id":"31560988451","owner":"52608016@N05","secret":"ecc073382d","server":"619","farm":1,"title":"Misawo","ispublic":1,"isfriend":0,"isfamily":0},{"id":"30865399963","owner":"50663863@N02","secret":"7880e44313","server":"147","farm":1,"title":"Colorful City","ispublic":1,"isfriend":0,"isfamily":0},{"id":"31534952512","owner":"142433654@N02","secret":"91b8dbf59f","server":"356","farm":1,"title":"193 205","ispublic":1,"isfriend":0,"isfamily":0},{"id":"30840964004","owner":"32165217@N03","secret":"b7b5bddc38","server":"614","farm":1,"title":"Monte Alben","ispublic":1,"isfriend":0,"isfamily":0},{"id":"30839424374","owner":"12296940@N02","secret":"2018d57316","server":"271","farm":1,"title":"home","ispublic":1,"isfriend":0,"isfamily":0},{"id":"31678880965","owner":"120939277@N03","secret":"34877e029b","server":"5580","farm":6,"title":"Lonely cemetery","ispublic":1,"isfriend":0,"isfamily":0},{"id":"31680253255","owner":"87799004@N08","secret":"21abf5867c","server":"486","farm":1,"title":"Balbuzard p\u00eacheur","ispublic":1,"isfriend":0,"isfamily":0},{"id":"30865983923","owner":"35634552@N03","secret":"edb7963393","server":"587","farm":1,"title":"Leaf dancing on the wall","ispublic":1,"isfriend":0,"isfamily":0},{"id":"31537961182","owner":"137633664@N05","secret":"067dd3f519","server":"290","farm":1,"title":"Trebarwith Rocks.","ispublic":1,"isfriend":0,"isfamily":0},{"id":"31527820482","owner":"31856336@N03","secret":"7d9d8025d2","server":"463","farm":1,"title":"Ductility","ispublic":1,"isfriend":0,"isfamily":0},{"id":"31687884065","owner":"103718114@N07","secret":"2517f69eca","server":"508","farm":1,"title":"Spectator Sport","ispublic":1,"isfriend":0,"isfamily":0},{"id":"31675405095","owner":"100347889@N08","secret":"06f87a6d03","server":"5595","farm":6,"title":"The Illumination","ispublic":1,"isfriend":0,"isfamily":0},{"id":"30867984213","owner":"48746351@N03","secret":"ee53966c49","server":"269","farm":1,"title":"Merry Xmas all ..","ispublic":1,"isfriend":0,"isfamily":0},{"id":"31671503645","owner":"36621285@N07","secret":"f570f9703f","server":"711","farm":1,"title":"The roller coaster ride begins","ispublic":1,"isfriend":0,"isfamily":0},{"id":"31670381805","owner":"59430840@N07","secret":"e57644a18a","server":"759","farm":1,"title":"Rolling by corporate","ispublic":1,"isfriend":0,"isfamily":0},{"id":"31555535911","owner":"127418372@N06","secret":"2b8f90e342","server":"5573","farm":6,"title":"Rey-dux","ispublic":1,"isfriend":0,"isfamily":0},{"id":"30871934833","owner":"46965044@N07","secret":"9b6b97926a","server":"597","farm":1,"title":"ind-10681","ispublic":1,"isfriend":0,"isfamily":0},{"id":"30829943254","owner":"96037254@N00","secret":"41fe9c7d9d","server":"319","farm":1,"title":"One World Trade through the Oculus","ispublic":1,"isfriend":0,"isfamily":0},{"id":"31687261545","owner":"64051561@N08","secret":"31d53ec663","server":"501","farm":1,"title":"Port Arthur Penitentiary","ispublic":1,"isfriend":0,"isfamily":0},{"id":"31676963945","owner":"149182277@N06","secret":"5136196663","server":"684","farm":1,"title":"\u041a\u043b\u0438\u0441\u0443\u0440\u0430 \u0422\u043e\u043f\u043e\u043d\u0438\u0447\u043a\u0435 \u0440\u0435\u043a\u0435","ispublic":1,"isfriend":0,"isfamily":0},{"id":"31647521536","owner":"60026382@N02","secret":"5b5c8f9eef","server":"335","farm":1,"title":"PC110051","ispublic":1,"isfriend":0,"isfamily":0},{"id":"31530255402","owner":"57318799@N08","secret":"406e5a12ae","server":"380","farm":1,"title":"Hidden Treasures (explore)","ispublic":1,"isfriend":0,"isfamily":0},{"id":"30878514553","owner":"117858568@N08","secret":"61fd0941bb","server":"5587","farm":6,"title":"Mine at Searchlight (15)_stitch","ispublic":1,"isfriend":0,"isfamily":0},{"id":"31649298526","owner":"31999341@N05","secret":"e61b44329c","server":"552","farm":1,"title":"Bociany - Storks","ispublic":1,"isfriend":0,"isfamily":0},{"id":"31307374870","owner":"81634297@N08","secret":"abd236fa9f","server":"213","farm":1,"title":"Fingerprint Ant","ispublic":1,"isfriend":0,"isfamily":0},{"id":"31688306935","owner":"147212404@N08","secret":"c26ca4d76b","server":"718","farm":1,"title":"Im Landeanflug!    Auf flickr...?","ispublic":1,"isfriend":0,"isfamily":0},{"id":"31644498696","owner":"147918719@N08","secret":"ce113d570c","server":"553","farm":1,"title":"_MG_6368","ispublic":1,"isfriend":0,"isfamily":0},{"id":"31531626292","owner":"129245193@N05","secret":"40363e96d6","server":"5551","farm":6,"title":"Fishy Fly-over","ispublic":1,"isfriend":0,"isfamily":0},{"id":"31633329646","owner":"95626605@N04","secret":"42532a7302","server":"378","farm":1,"title":"2016.11.20","ispublic":1,"isfriend":0,"isfamily":0},{"id":"31312833490","owner":"97978797@N03","secret":"2cb8a82332","server":"733","farm":1,"title":"Eichh\u00f6rnchen","ispublic":1,"isfriend":0,"isfamily":0},{"id":"31650765656","owner":"82428740@N03","secret":"d07dce1221","server":"487","farm":1,"title":"...","ispublic":1,"isfriend":0,"isfamily":0},{"id":"31646833796","owner":"130325787@N04","secret":"a33391661b","server":"661","farm":1,"title":"lapland longspur","ispublic":1,"isfriend":0,"isfamily":0},{"id":"31569495381","owner":"30732408@N03","secret":"c41a502319","server":"468","farm":1,"title":"PB16 9094  owls 2016","ispublic":1,"isfriend":0,"isfamily":0},{"id":"31313032270","owner":"33573751@N04","secret":"ffbc3c1f5e","server":"159","farm":1,"title":"Magnificent Hummingbird (Eugenes fulgens) (EXPLORE December 17, 2016) - Please View Large","ispublic":1,"isfriend":0,"isfamily":0},{"id":"31306995670","owner":"67016706@N05","secret":"248f5b7b71","server":"701","farm":1,"title":"Light curve","ispublic":1,"isfriend":0,"isfamily":0},{"id":"31537474592","owner":"84379000@N06","secret":"bf0d47a50b","server":"407","farm":1,"title":"CV","ispublic":1,"isfriend":0,"isfamily":0},{"id":"31314734870","owner":"76024502@N00","secret":"e4607289ce","server":"30","farm":1,"title":"","ispublic":1,"isfriend":0,"isfamily":0},{"id":"31650200366","owner":"71088059@N00","secret":"c7012a238c","server":"500","farm":1,"title":"Reflection","ispublic":1,"isfriend":0,"isfamily":0}]
        },
    "stat":"ok"
}
